{
    "trademarkList": [
        {
            "tmId": 1,
            "tmName": "小米"
        },
        {
            "tmId": 6,
            "tmName": "VIVO"
        },
        {
            "tmId": 2,
            "tmName": "苹果"
        },
        {
            "tmId": 3,
            "tmName": "华为"
        },
        {
            "tmId": 4,
            "tmName": "尚硅谷"
        },
        {
            "tmId": 5,
            "tmName": "OPPO"
        },
        {
            "tmId": 7,
            "tmName": "三星"
        },
        {
            "tmId": 24,
            "tmName": "联想"
        },
        {
            "tmId": 26,
            "tmName": "海信"
        },
        {
            "tmId": 27,
            "tmName": "戴尔"
        }
    ],
    "attrsList": [
        {
            "attrId": 106,
            "attrValueList": [
                "安卓手机",
                "苹果手机"
            ],
            "attrName": "手机一级"
        },
        {
            "attrId": 107,
            "attrValueList": [
                "小米",
                "华为",
                "苹果"
            ],
            "attrName": "二级手机"
        },
        {
            "attrId": 23,
            "attrValueList": [
                "8G",
                "4G",
                "6G",
                "12G",
                "3G"
            ],
            "attrName": "运行内存"
        },
        {
            "attrId": 24,
            "attrValueList": [
                "128G",
                "256G",
                "32G",
                "512G"
            ],
            "attrName": "机身内存"
        },
        {
            "attrId": 111,
            "attrValueList": [
                "麒麟990",
                "骁龙845",
                "骁龙439",
                "5G骁龙768G"
            ],
            "attrName": "CPU型号"
        },
        {
            "attrId": 37,
            "attrValueList": [
                "Java",
                "C#",
                "JavaScript"
            ],
            "attrName": "分类"
        },
        {
            "attrId": 112,
            "attrValueList": [
                "6.85-6.94英寸",
                "6.0-6.24英寸",
                "6.55-6.64英寸",
                " 6.75-6.84英寸",
                "6.65-6.74英寸",
                "6.95英寸及以上"
            ],
            "attrName": "屏幕尺寸"
        },
        {
            "attrId": 17430,
            "attrValueList": [
                "zwx"
            ],
            "attrName": "zwx"
        },
        {
            "attrId": 25,
            "attrValueList": [
                "i5"
            ],
            "attrName": "处理器"
        },
        {
            "attrId": 26,
            "attrValueList": [
                "14.0"
            ],
            "attrName": "屏幕尺寸"
        }
    ],
    "goodsList": [
        {
            "id": 20,
            "defaultImg": "http://47.93.148.192:8080/group1/M00/02/DB/rBHu8mGxPcKAZ_qwAAAaCuo69pQ498.jpg",
            "title": "vivo S10 Pro 5G手机 12GB+256GB 青柠 超轻薄机身 后置一亿像素 自然柔光人像 6nm旗舰芯片 拍照手机 蓝",
            "price": 2343,
            "createTime": null,
            "tmId": null,
            "tmName": null,
            "category1Id": null,
            "category1Name": null,
            "category2Id": null,
            "category2Name": null,
            "category3Id": null,
            "category3Name": null,
            "hotScore": 0,
            "attrs": null
        },
        {
            "id": 13,
            "defaultImg": "http://47.93.148.192:8080/group1/M00/00/02/rBHu8l-sklaALrngAAHGDqdpFtU741.jpg",
            "title": "华为 HUAWEI P40 麒麟990 5G SoC芯片 5000万超感知徕卡三摄 30倍数字变焦 6GB+128GB亮黑色全网通5G手机",
            "price": 4188,
            "createTime": null,
            "tmId": null,
            "tmName": null,
            "category1Id": null,
            "category1Name": null,
            "category2Id": null,
            "category2Name": null,
            "category3Id": null,
            "category3Name": null,
            "hotScore": 0,
            "attrs": null
        },
        {
            "id": 4397,
            "defaultImg": "",
            "title": "1",
            "price": 0,
            "createTime": null,
            "tmId": null,
            "tmName": null,
            "category1Id": null,
            "category1Name": null,
            "category2Id": null,
            "category2Name": null,
            "category3Id": null,
            "category3Name": null,
            "hotScore": 0,
            "attrs": null
        },
        {
            "id": 6186,
            "defaultImg": "",
            "title": "11",
            "price": 0,
            "createTime": null,
            "tmId": null,
            "tmName": null,
            "category1Id": null,
            "category1Name": null,
            "category2Id": null,
            "category2Name": null,
            "category3Id": null,
            "category3Name": null,
            "hotScore": 0,
            "attrs": null
        },
        {
            "id": 6183,
            "defaultImg": null,
            "title": "oppo reon se 4",
            "price": 2499,
            "createTime": null,
            "tmId": null,
            "tmName": null,
            "category1Id": null,
            "category1Name": null,
            "category2Id": null,
            "category2Name": null,
            "category3Id": null,
            "category3Name": null,
            "hotScore": 0,
            "attrs": null
        },
        {
            "id": 18,
            "defaultImg": null,
            "title": "vivo S10 Pro 5G手机 12GB+256GB 绮光焕彩 后置一亿像素 自然柔光人像 光致变色工艺 6nm旗舰芯片",
            "price": 2323,
            "createTime": null,
            "tmId": null,
            "tmName": null,
            "category1Id": null,
            "category1Name": null,
            "category2Id": null,
            "category2Name": null,
            "category3Id": null,
            "category3Name": null,
            "hotScore": 0,
            "attrs": null
        },
        {
            "id": 6138,
            "defaultImg": "",
            "title": "121",
            "price": 232,
            "createTime": null,
            "tmId": null,
            "tmName": null,
            "category1Id": null,
            "category1Name": null,
            "category2Id": null,
            "category2Name": null,
            "category3Id": null,
            "category3Name": null,
            "hotScore": 0,
            "attrs": null
        },
        {
            "id": 6192,
            "defaultImg": "http://47.93.148.192:8080/group1/M00/05/86/rBHu8mI8JGaAQpUpAABDUm6gKXw586.JPG",
            "title": "bb",
            "price": 0,
            "createTime": null,
            "tmId": null,
            "tmName": null,
            "category1Id": null,
            "category1Name": null,
            "category2Id": null,
            "category2Name": null,
            "category3Id": null,
            "category3Name": null,
            "hotScore": 0,
            "attrs": null
        },
        {
            "id": 4438,
            "defaultImg": "http://139.198.127.41:9000/sph/20220526/8b5b185536ab0bc2.jpg",
            "title": "苹果13pro",
            "price": 12999,
            "createTime": null,
            "tmId": null,
            "tmName": null,
            "category1Id": null,
            "category1Name": null,
            "category2Id": null,
            "category2Name": null,
            "category3Id": null,
            "category3Name": null,
            "hotScore": 0,
            "attrs": null
        },
        {
            "id": 6291,
            "defaultImg": "",
            "title": "123",
            "price": 123,
            "createTime": null,
            "tmId": null,
            "tmName": null,
            "category1Id": null,
            "category1Name": null,
            "category2Id": null,
            "category2Name": null,
            "category3Id": null,
            "category3Name": null,
            "hotScore": 0,
            "attrs": null
        }
    ],
    "total": 138,
    "pageSize": 10,
    "pageNo": 1,
    "totalPages": 14
}